-- Catapult System Level Synthesis: Report                                              
-- -------------------------------- ---------------------------------------------------
-- Version:                         2011a.41 Production Release                         
-- Build Date:                      Thu Apr  7 20:28:55 PDT 2011                        
                                                                                        
-- Generated by:                    jso@DESKTOP-B1OLF1K                                 
-- Generated date:                  Wed Mar 21 19:49:11 +0330 2018                      

Solution Settings: CA1.v13
  Current state: extract
  Project: CA1
  
  Design Input Files Specified
    $PROJECT_HOME/code.cpp
      $MGC_HOME/shared/include/ac_int.h
  
  Processes/Blocks in Design
    Process       Real Operation(s) count Latency Throughput Reset Length II Comments 
    ------------- ----------------------- ------- ---------- ------------ -- --------
    /CA1/core                          24     103        104            0  0          
    Design Total:                      24     103        104            0  0          
    
  Bill Of Materials (Datapath)
    Component Name                         Area Score Area(DSP_block_9-bit_elems) Area(LUTs) Delay Post Alloc Post Assign 
    -------------------------------------- ---------- --------------------------- ---------- ----- ---------- -----------
    [Lib: mgc_Altera-Cyclone-II-6_beh_psr]                                                                                
    mgc_add(10,0,9,0,11)                       11.279                       0.000     11.279 1.535          1           1 
    mgc_add(3,0,2,0,3)                          4.347                       0.000      4.347 1.071          0           1 
    mgc_add(3,0,2,1,3)                          3.000                       0.000      3.000 1.071          1           1 
    mgc_add(4,0,2,1,4)                          4.000                       0.000      4.000 1.161          1           1 
    mgc_add(4,0,3,0,4)                          5.337                       0.000      5.337 1.130          2           1 
    mgc_add(64,0,9,0,64)                       64.973                       0.000     64.973 5.465          1           1 
    mgc_add(8,0,7,0,9)                          9.298                       0.000      9.298 1.396          0           1 
    mgc_add(8,0,8,0,9)                          9.294                       0.000      9.294 1.387          1           1 
    mgc_add(9,0,8,0,10)                        10.289                       0.000     10.289 1.465          1           0 
    mgc_and(1,2)                                0.730                       0.000      0.730 0.409          0           8 
    mgc_and(1,3)                                1.054                       0.000      1.054 0.648          0           3 
    mgc_and(1,4)                                1.379                       0.000      1.379 0.818          0           1 
    mgc_and(3,2)                                2.189                       0.000      2.189 0.409          0           1 
    mgc_and(4,2)                                2.919                       0.000      2.919 0.409          1           1 
    mgc_and(64,2)                              46.709                       0.000     46.709 0.409          0           1 
    mgc_mul(16,0,64,0,64)                    1330.285                       8.000     10.285 8.245          1           1 
    mgc_mul(8,0,8,0,16)                       340.285                       2.000     10.285 2.792          1           1 
    mgc_mux(1,1,2)                              0.919                       0.000      0.919 0.947          0           6 
    mgc_mux(3,1,2)                              2.758                       0.000      2.758 0.947          1           1 
    mgc_mux(4,1,2)                              3.678                       0.000      3.678 0.947          1           1 
    mgc_mux(64,1,2)                            58.843                       0.000     58.843 0.947          1           1 
    mgc_mux(8,1,2)                              7.355                       0.000      7.355 0.947          0           5 
    mgc_mux1hot(64,3)                         140.136                       0.000    140.136 1.402          0           2 
    mgc_nand(1,2)                               0.730                       0.000      0.730 0.398          0           5 
    mgc_nand(1,4)                               1.379                       0.000      1.379 0.796          0           1 
    mgc_nor(1,2)                                0.730                       0.000      0.730 0.409          0          10 
    mgc_not(1)                                  0.000                       0.000      0.000 0.000          0          13 
    mgc_or(1,2)                                 0.730                       0.000      0.730 0.398          0           5 
    mgc_or(1,3)                                 1.054                       0.000      1.054 0.631          0           1 
    mgc_reg_pos(1,0,0,1,1,0,0)                  0.000                       0.000      0.000 0.000          0           7 
    mgc_reg_pos(16,0,0,1,1,0,0)                 0.000                       0.000      0.000 0.000          0           2 
    mgc_reg_pos(3,0,0,1,1,0,0)                  0.000                       0.000      0.000 0.000          0           1 
    mgc_reg_pos(4,0,0,1,1,0,0)                  0.000                       0.000      0.000 0.000          0           1 
    mgc_reg_pos(64,0,0,1,1,0,0)                 0.000                       0.000      0.000 0.000          0           4 
    mgc_reg_pos(8,0,0,1,1,0,0)                  0.000                       0.000      0.000 0.000          0           5 
    mgc_reg_pos(9,0,0,1,1,0,0)                  0.000                       0.000      0.000 0.000          0           1 
    [Lib: mgc_ioport]                                                                                                     
    mgc_in_wire(1,8)                            0.000                       0.000      0.000 0.000          1           1 
    mgc_in_wire(2,8)                            0.000                       0.000      0.000 0.000          1           1 
    mgc_in_wire(3,8)                            0.000                       0.000      0.000 0.000          1           1 
    mgc_in_wire(4,8)                            0.000                       0.000      0.000 0.000          1           1 
    mgc_in_wire(5,8)                            0.000                       0.000      0.000 0.000          1           1 
    mgc_out_stdreg(6,64)                        0.000                       0.000      0.000 0.000          1           1 
                                                                                                                          
    TOTAL AREA (After Assignment):           2249.173                      10.000    599.000                              
    
  Area Scores
                      Post-Scheduling   Post-DP & FSM Post-Assignment 
    ----------------- --------------- --------------- ---------------
    Total Area Score:   1852.3          2590.4          2249.2        
    Total Reg:             0.0             0.0             0.0        
                                                                      
    DataPath:           1852.3 (100%)   2590.4 (100%)   2249.2 (100%) 
      MUX:                65.3   (4%)    722.5  (28%)    387.8  (17%) 
      FUNC:             1784.1  (96%)   1783.1  (69%)   1782.1  (79%) 
      LOGIC:               2.9   (0%)     84.8   (3%)     79.2   (4%) 
      BUFFER:              0.0             0.0             0.0        
      MEM:                 0.0             0.0             0.0        
      ROM:                 0.0             0.0             0.0        
      REG:                 0.0             0.0             0.0        
                                                                      
    
    FSM:                   0.0             0.0             0.0        
      FSM-REG:             0.0             0.0             0.0        
      FSM-COMB:            0.0             0.0             0.0        
                                                                      
    
  Register-to-Variable Mappings
    Register                        Size(bits) Gated Register CG Opt Done Variables                                             
    ------------------------------- ---------- -------------- ----------- -----------------------------------------------------
    CA1.return:rsc:mgc_out_stdreg.d         64                            CA1.return:rsc:mgc_out_stdreg.d                       
    mul:mgc_mul.b                           64                            mul:mgc_mul.b                                         
    mul:mgc_mul.z.oreg                      64                            mul:mgc_mul.z.oreg                                    
    out.reg                                 64                            out.sva                                               
                                                                          out.sva#3                                             
                                                                          out.sva.dfm                                           
    OUTER:mul#1.itm                         16                            OUTER:mul#1.itm                                       
    mul:mgc_mul.a                           16                            mul:mgc_mul.a                                         
    INNER:slc#1.itm                          9                            INNER:slc#1.itm                                       
    a#1.sva                                  8                            a#1.sva                                               
    b#1.sva                                  8                            b#1.sva                                               
    c#1.sva                                  8                            c#1.sva                                               
    d#1.sva                                  8                            d#1.sva                                               
    e#1.sva                                  8                            e#1.sva                                               
    INNER:j#1.sva                            4                            INNER:j#1.sva                                         
    OUTER:i#1.sva                            3                            OUTER:i#1.sva                                         
    OUTER.stage_0                            1                            OUTER.stage_0                                         
    OUTER.stage_0#1                          1                            OUTER.stage_0#1                                       
    OUTER.stage_0#2                          1                            OUTER.stage_0#2                                       
    OUTER:asn#2.itm                          1                            OUTER:asn#2.itm                                       
    OUTER:asn#2.itm#1                        1                            OUTER:asn#2.itm#1                                     
    exit:INNER.sva                           1                            exit:INNER.sva                                        
    exit:INNER.sva#1                         1                            exit:INNER.sva#1                                      
                                                                                                                                
    Total:                                 351              0           0 (Total Gating Ratio: 0.00, CG Opt Gating Ratio: 0.00) 
    
  Timing Report
    Critical Path
      Max Delay:  9.040188
      Slack:      0.9598119999999994
      
      Path                              Startpoint                      Endpoint                    Delay  Slack  
      --------------------------------- ------------------------------- --------------------------- ------ ------
      1                                 CA1:core/reg(OUTER.stage_0#2)   CA1:core/reg(out.reg)       9.0402 0.9598 
                                                                                                                  
        Instance                        Component                                                   Delta  Delay  
        --------                        ---------                                                   -----  -----  
        CA1:core/reg(OUTER.stage_0#2)   mgc_reg_pos_1_0_0_1_1_0_0                                   0.0000 0.0000 
        CA1:core/OUTER.stage_0#2                                                                    0.0000 0.0000 
        CA1:core/not#15                 mgc_not_1                                                   0.0000 0.0000 
        CA1:core/not#15.itm                                                                         0.0000 0.0000 
        CA1:core/nor                    mgc_nor_1_2                                                 0.4089 0.4089 
        CA1:core/nor.itm                                                                            0.0000 0.4089 
        CA1:core/and#31                 mgc_and_1_2                                                 0.4089 0.8178 
        CA1:core/and#31.itm                                                                         0.0000 0.8178 
        CA1:core/mux#6                  mgc_mux_64_1_2                                              0.9467 1.7645 
        CA1:core/mux#6.itm                                                                          0.0000 1.7645 
        CA1:core/INNER:acc#4            mgc_add_64_0_9_0_64                                         5.4647 7.2292 
        CA1:core/out.sva#1:mx2w1                                                                    0.0000 7.2292 
        CA1:core/mux1h                  mgc_mux1hot_64_3                                            1.4021 8.6313 
        CA1:core/mux1h.itm                                                                          0.0000 8.6313 
        CA1:core/and#37                 mgc_and_64_2                                                0.4089 9.0402 
        CA1:core/and#37.itm                                                                         0.0000 9.0402 
        CA1:core/reg(out.reg)           mgc_reg_pos_64_0_0_1_1_0_0                                  0.0000 9.0402 
                                                                                                                  
      2                                 CA1:core/reg(OUTER:asn#2.itm#1) CA1:core/reg(out.reg)       9.0402 0.9598 
                                                                                                                  
        Instance                        Component                                                   Delta  Delay  
        --------                        ---------                                                   -----  -----  
        CA1:core/reg(OUTER:asn#2.itm#1) mgc_reg_pos_1_0_0_1_1_0_0                                   0.0000 0.0000 
        CA1:core/OUTER:asn#2.itm#1                                                                  0.0000 0.0000 
        CA1:core/nor                    mgc_nor_1_2                                                 0.4089 0.4089 
        CA1:core/nor.itm                                                                            0.0000 0.4089 
        CA1:core/and#31                 mgc_and_1_2                                                 0.4089 0.8178 
        CA1:core/and#31.itm                                                                         0.0000 0.8178 
        CA1:core/mux#6                  mgc_mux_64_1_2                                              0.9467 1.7645 
        CA1:core/mux#6.itm                                                                          0.0000 1.7645 
        CA1:core/INNER:acc#4            mgc_add_64_0_9_0_64                                         5.4647 7.2292 
        CA1:core/out.sva#1:mx2w1                                                                    0.0000 7.2292 
        CA1:core/mux1h                  mgc_mux1hot_64_3                                            1.4021 8.6313 
        CA1:core/mux1h.itm                                                                          0.0000 8.6313 
        CA1:core/and#37                 mgc_and_64_2                                                0.4089 9.0402 
        CA1:core/and#37.itm                                                                         0.0000 9.0402 
        CA1:core/reg(out.reg)           mgc_reg_pos_64_0_0_1_1_0_0                                  0.0000 9.0402 
                                                                                                                  
      3                                 CA1:core/reg(exit:INNER.sva#1)  CA1:core/reg(out.reg)       8.6313 1.3687 
                                                                                                                  
        Instance                        Component                                                   Delta  Delay  
        --------                        ---------                                                   -----  -----  
        CA1:core/reg(exit:INNER.sva#1)  mgc_reg_pos_1_0_0_1_1_0_0                                   0.0000 0.0000 
        CA1:core/exit:INNER.sva#1                                                                   0.0000 0.0000 
        CA1:core/and#31                 mgc_and_1_2                                                 0.4089 0.4089 
        CA1:core/and#31.itm                                                                         0.0000 0.4089 
        CA1:core/mux#6                  mgc_mux_64_1_2                                              0.9467 1.3556 
        CA1:core/mux#6.itm                                                                          0.0000 1.3556 
        CA1:core/INNER:acc#4            mgc_add_64_0_9_0_64                                         5.4647 6.8203 
        CA1:core/out.sva#1:mx2w1                                                                    0.0000 6.8203 
        CA1:core/mux1h                  mgc_mux1hot_64_3                                            1.4021 8.2224 
        CA1:core/mux1h.itm                                                                          0.0000 8.2224 
        CA1:core/and#37                 mgc_and_64_2                                                0.4089 8.6313 
        CA1:core/and#37.itm                                                                         0.0000 8.6313 
        CA1:core/reg(out.reg)           mgc_reg_pos_64_0_0_1_1_0_0                                  0.0000 8.6313 
                                                                                                                  
      4                                 CA1:core/reg(mul:mgc_mul.a)     CA1/reg(mul:mgc_mul.z.oreg) 8.2450 1.7550 
                                                                                                                  
        Instance                        Component                                                   Delta  Delay  
        --------                        ---------                                                   -----  -----  
        CA1/mul:mgc_mul.a                                                                           0.0000 0.0000 
        CA1/mul:mgc_mul                 mgc_mul_16_0_64_0_64                                        8.2450 8.2450 
        CA1/mul:mgc_mul.z                                                                           0.0000 8.2450 
        CA1/reg(mul:mgc_mul.z.oreg)     mgc_reg_pos_64_0_0_1_1_0_0                                  0.0000 8.2450 
                                                                                                                  
      5                                 CA1:core/reg(mul:mgc_mul.b)     CA1/reg(mul:mgc_mul.z.oreg) 8.2450 1.7550 
                                                                                                                  
        Instance                        Component                                                   Delta  Delay  
        --------                        ---------                                                   -----  -----  
        CA1/mul:mgc_mul.b                                                                           0.0000 0.0000 
        CA1/mul:mgc_mul                 mgc_mul_16_0_64_0_64                                        8.2450 8.2450 
        CA1/mul:mgc_mul.z                                                                           0.0000 8.2450 
        CA1/reg(mul:mgc_mul.z.oreg)     mgc_reg_pos_64_0_0_1_1_0_0                                  0.0000 8.2450 
                                                                                                                  
      6                                 CA1:core/reg(out.reg)           CA1:core/reg(out.reg)       8.2224 1.7776 
                                                                                                                  
        Instance                        Component                                                   Delta  Delay  
        --------                        ---------                                                   -----  -----  
        CA1:core/reg(out.reg)           mgc_reg_pos_64_0_0_1_1_0_0                                  0.0000 0.0000 
        CA1:core/out.reg                                                                            0.0000 0.0000 
        CA1:core/mux#6                  mgc_mux_64_1_2                                              0.9467 0.9467 
        CA1:core/mux#6.itm                                                                          0.0000 0.9467 
        CA1:core/INNER:acc#4            mgc_add_64_0_9_0_64                                         5.4647 6.4114 
        CA1:core/out.sva#1:mx2w1                                                                    0.0000 6.4114 
        CA1:core/mux1h                  mgc_mux1hot_64_3                                            1.4021 7.8135 
        CA1:core/mux1h.itm                                                                          0.0000 7.8135 
        CA1:core/and#37                 mgc_and_64_2                                                0.4089 8.2224 
        CA1:core/and#37.itm                                                                         0.0000 8.2224 
        CA1:core/reg(out.reg)           mgc_reg_pos_64_0_0_1_1_0_0                                  0.0000 8.2224 
                                                                                                                  
      7                                 CA1:core/mul:mgc_mul.z.oreg     CA1:core/reg(out.reg)       8.2224 1.7776 
                                                                                                                  
        Instance                        Component                                                   Delta  Delay  
        --------                        ---------                                                   -----  -----  
        CA1:core/mul:mgc_mul.z.oreg                                                                 0.0000 0.0000 
        CA1:core/mux#6                  mgc_mux_64_1_2                                              0.9467 0.9467 
        CA1:core/mux#6.itm                                                                          0.0000 0.9467 
        CA1:core/INNER:acc#4            mgc_add_64_0_9_0_64                                         5.4647 6.4114 
        CA1:core/out.sva#1:mx2w1                                                                    0.0000 6.4114 
        CA1:core/mux1h                  mgc_mux1hot_64_3                                            1.4021 7.8135 
        CA1:core/mux1h.itm                                                                          0.0000 7.8135 
        CA1:core/and#37                 mgc_and_64_2                                                0.4089 8.2224 
        CA1:core/and#37.itm                                                                         0.0000 8.2224 
        CA1:core/reg(out.reg)           mgc_reg_pos_64_0_0_1_1_0_0                                  0.0000 8.2224 
                                                                                                                  
      8                                 CA1:core/reg(INNER:slc#1.itm)   CA1:core/reg(out.reg)       7.2757 2.7243 
                                                                                                                  
        Instance                        Component                                                   Delta  Delay  
        --------                        ---------                                                   -----  -----  
        CA1:core/reg(INNER:slc#1.itm)   mgc_reg_pos_9_0_0_1_1_0_0                                   0.0000 0.0000 
        CA1:core/INNER:slc#1.itm                                                                    0.0000 0.0000 
        CA1:core/INNER:acc#4            mgc_add_64_0_9_0_64                                         5.4647 5.4647 
        CA1:core/out.sva#1:mx2w1                                                                    0.0000 5.4647 
        CA1:core/mux1h                  mgc_mux1hot_64_3                                            1.4021 6.8668 
        CA1:core/mux1h.itm                                                                          0.0000 6.8668 
        CA1:core/and#37                 mgc_and_64_2                                                0.4089 7.2757 
        CA1:core/and#37.itm                                                                         0.0000 7.2757 
        CA1:core/reg(out.reg)           mgc_reg_pos_64_0_0_1_1_0_0                                  0.0000 7.2757 
                                                                                                                  
      9                                 CA1:core/reg(OUTER.stage_0#2)   CA1:core/reg(mul:mgc_mul.b) 7.2292 2.7708 
                                                                                                                  
        Instance                        Component                                                   Delta  Delay  
        --------                        ---------                                                   -----  -----  
        CA1:core/reg(OUTER.stage_0#2)   mgc_reg_pos_1_0_0_1_1_0_0                                   0.0000 0.0000 
        CA1:core/OUTER.stage_0#2                                                                    0.0000 0.0000 
        CA1:core/not#15                 mgc_not_1                                                   0.0000 0.0000 
        CA1:core/not#15.itm                                                                         0.0000 0.0000 
        CA1:core/nor                    mgc_nor_1_2                                                 0.4089 0.4089 
        CA1:core/nor.itm                                                                            0.0000 0.4089 
        CA1:core/and#31                 mgc_and_1_2                                                 0.4089 0.8178 
        CA1:core/and#31.itm                                                                         0.0000 0.8178 
        CA1:core/mux#6                  mgc_mux_64_1_2                                              0.9467 1.7645 
        CA1:core/mux#6.itm                                                                          0.0000 1.7645 
        CA1:core/INNER:acc#4            mgc_add_64_0_9_0_64                                         5.4647 7.2292 
        CA1:core/out.sva#1:mx2w1                                                                    0.0000 7.2292 
        CA1:core/reg(mul:mgc_mul.b)     mgc_reg_pos_64_0_0_1_1_0_0                                  0.0000 7.2292 
                                                                                                                  
      10                                CA1:core/reg(OUTER:asn#2.itm#1) CA1:core/reg(mul:mgc_mul.b) 7.2292 2.7708 
                                                                                                                  
        Instance                        Component                                                   Delta  Delay  
        --------                        ---------                                                   -----  -----  
        CA1:core/reg(OUTER:asn#2.itm#1) mgc_reg_pos_1_0_0_1_1_0_0                                   0.0000 0.0000 
        CA1:core/OUTER:asn#2.itm#1                                                                  0.0000 0.0000 
        CA1:core/nor                    mgc_nor_1_2                                                 0.4089 0.4089 
        CA1:core/nor.itm                                                                            0.0000 0.4089 
        CA1:core/and#31                 mgc_and_1_2                                                 0.4089 0.8178 
        CA1:core/and#31.itm                                                                         0.0000 0.8178 
        CA1:core/mux#6                  mgc_mux_64_1_2                                              0.9467 1.7645 
        CA1:core/mux#6.itm                                                                          0.0000 1.7645 
        CA1:core/INNER:acc#4            mgc_add_64_0_9_0_64                                         5.4647 7.2292 
        CA1:core/out.sva#1:mx2w1                                                                    0.0000 7.2292 
        CA1:core/reg(mul:mgc_mul.b)     mgc_reg_pos_64_0_0_1_1_0_0                                  0.0000 7.2292 
                                                                                                                  
      
    Register Input and Register-to-Output Slack
      Clock period or pin-to-reg delay constraint (clk): 10.0
      Clock uncertainty constraint (clk)               : 0.0
      
      Instance                                      Port                Slack (Delay) Messages 
      --------------------------------------------- ----------------- ------- ------- --------
      CA1/reg(mul:mgc_mul.z.oreg)                   mul:mgc_mul.z      1.7550  8.2450          
      CA1:core/reg(exit:INNER.sva#1)                mux#1.itm          9.0533  0.9467          
      CA1:core/reg(OUTER.stage_0)                   or#32.itm          6.1060  3.8940          
      CA1:core/reg(OUTER:i#1.sva)                   and.itm            5.1373  4.8627          
      CA1:core/reg(INNER:j#1.sva)                   and#36.itm         6.0731  3.9269          
      CA1:core/reg(OUTER:asn#2.itm#1)               mux#4.itm          9.0533  0.9467          
      CA1:core/reg(OUTER.stage_0#1)                 or#33.itm          8.2465  1.7535          
      CA1:core/reg(OUTER.stage_0#2)                 and#26.itm         8.2355  1.7645          
      CA1:core/reg(CA1.return:rsc:mgc_out_stdreg.d) mux1h#5.itm        7.1321  2.8679          
      CA1:core/reg(mul:mgc_mul.b)                   out.sva#1:mx2w1    0.9598  9.0402          
      CA1:core/reg(mul:mgc_mul.a)                   OUTER:mul#1.itm   10.0000  0.0000          
      CA1:core/reg(out.reg)                         and#37.itm         0.9598  9.0402          
      CA1:core/reg(e#1.sva)                         mux#7.itm          8.6553  1.3447          
      CA1:core/reg(a#1.sva)                         mux#8.itm          8.6553  1.3447          
      CA1:core/reg(b#1.sva)                         mux#9.itm          8.6553  1.3447          
      CA1:core/reg(c#1.sva)                         mux#10.itm         8.6553  1.3447          
      CA1:core/reg(d#1.sva)                         mux#11.itm         8.6553  1.3447          
      CA1:core/reg(exit:INNER.sva)                  INNER:not.itm      7.7086  2.2914          
      CA1:core/reg(OUTER:mul#1.itm)                 OUTER:mul#1.itm#2  7.2078  2.7922          
      CA1:core/reg(INNER:slc#1.itm)                 INNER:slc#1.itm#2  7.0691  2.9309          
      CA1:core/reg(OUTER:asn#2.itm)                 INNER:nor.itm      7.2998  2.7002          
      CA1                                           CA1.return:rsc.z  10.0000  0.0000          
      
  Operator Bitwidth Summary
    Operation  Size (bits) Count 
    ---------- ----------- -----
    add                          
    -                   64     1 
    -                   11     1 
    -                    9     2 
    -                    4     2 
    -                    3     2 
    and                          
    -                    4     1 
    -                    3     3 
    -                    2    11 
    mul                          
    -                   64     1 
    -                   16     1 
    mux                          
    -                    1    14 
    mux1h                        
    -                    3     2 
    nand                         
    -                    4     1 
    -                    2     5 
    nor                          
    -                    2    10 
    not                          
    -                    1    13 
    or                           
    -                    3     1 
    -                    2     5 
    read_port                    
    -                    8     5 
    reg                          
    -                   64     4 
    -                   16     2 
    -                    9     1 
    -                    8     5 
    -                    4     1 
    -                    3     1 
    -                    1     7 
    write_port                   
    -                   64     1 
    
  End of Report
