-- Catapult System Level Synthesis: Report                                              
-- -------------------------------- ---------------------------------------------------
-- Version:                         2011a.41 Production Release                         
-- Build Date:                      Thu Apr  7 20:28:55 PDT 2011                        
                                                                                        
-- Generated by:                    jso@DESKTOP-B1OLF1K                                 
-- Generated date:                  Wed Mar 21 19:00:56 +0330 2018                      

Solution Settings: CA1.v9
  Current state: extract
  Project: CA1
  
  Design Input Files Specified
    $PROJECT_HOME/code.cpp
      $MGC_HOME/shared/include/ac_int.h
  
  Processes/Blocks in Design
    Process       Real Operation(s) count Latency Throughput Reset Length II Comments 
    ------------- ----------------------- ------- ---------- ------------ -- --------
    /CA1/core                          18     116        117            0  0          
    Design Total:                      18     116        117            0  0          
    
  Bill Of Materials (Datapath)
    Component Name                         Area Score Area(DSP_block_9-bit_elems) Area(LUTs) Delay Post Alloc Post Assign 
    -------------------------------------- ---------- --------------------------- ---------- ----- ---------- -----------
    [Lib: mgc_Altera-Cyclone-II-6_beh_psr]                                                                                
    mgc_add(10,0,9,0,11)                       11.279                       0.000     11.279 1.535          1           1 
    mgc_add(3,0,2,1,3)                          3.000                       0.000      3.000 1.071          1           1 
    mgc_add(4,0,2,1,4)                          4.000                       0.000      4.000 1.161          1           1 
    mgc_add(4,0,3,0,4)                          5.337                       0.000      5.337 1.130          1           1 
    mgc_add(64,0,9,0,64)                       64.973                       0.000     64.973 5.465          1           1 
    mgc_add(8,0,7,0,9)                          9.298                       0.000      9.298 1.396          0           1 
    mgc_add(8,0,8,0,9)                          9.294                       0.000      9.294 1.387          1           1 
    mgc_add(9,0,8,0,10)                        10.289                       0.000     10.289 1.465          1           0 
    mgc_and(3,2)                                2.189                       0.000      2.189 0.409          0           1 
    mgc_and(4,2)                                2.919                       0.000      2.919 0.409          0           1 
    mgc_and(64,2)                              46.709                       0.000     46.709 0.409          0           1 
    mgc_mul(16,0,64,0,64)                    1330.285                       8.000     10.285 8.245          1           1 
    mgc_mul(8,0,8,0,16)                       340.285                       2.000     10.285 2.792          1           1 
    mgc_mux(1,1,2)                              0.919                       0.000      0.919 0.947          0           1 
    mgc_mux(3,1,2)                              2.758                       0.000      2.758 0.947          0           3 
    mgc_mux(4,1,2)                              3.678                       0.000      3.678 0.947          0           1 
    mgc_mux(64,1,2)                            58.843                       0.000     58.843 0.947          0           1 
    mgc_mux(8,1,2)                              7.355                       0.000      7.355 0.947          0           5 
    mgc_mux1hot(64,3)                         140.136                       0.000    140.136 1.402          0           1 
    mgc_nor(1,2)                                0.730                       0.000      0.730 0.409          0           1 
    mgc_nor(1,3)                                1.054                       0.000      1.054 0.648          0           1 
    mgc_not(1)                                  0.000                       0.000      0.000 0.000          0           6 
    mgc_or(1,2)                                 0.730                       0.000      0.730 0.398          0           2 
    mgc_or(1,3)                                 1.054                       0.000      1.054 0.631          0           1 
    mgc_or(1,4)                                 1.379                       0.000      1.379 0.796          0           1 
    mgc_reg_pos(1,0,0,1,1,0,0)                  0.000                       0.000      0.000 0.000          0           2 
    mgc_reg_pos(16,0,0,1,1,0,0)                 0.000                       0.000      0.000 0.000          0           1 
    mgc_reg_pos(3,0,0,1,1,0,0)                  0.000                       0.000      0.000 0.000          0           1 
    mgc_reg_pos(4,0,0,1,1,0,0)                  0.000                       0.000      0.000 0.000          0           1 
    mgc_reg_pos(64,0,0,1,1,0,0)                 0.000                       0.000      0.000 0.000          0           4 
    mgc_reg_pos(8,0,0,1,1,0,0)                  0.000                       0.000      0.000 0.000          0           5 
    mgc_reg_pos(9,0,0,1,1,0,0)                  0.000                       0.000      0.000 0.000          0           1 
    [Lib: mgc_ioport]                                                                                                     
    mgc_in_wire(1,8)                            0.000                       0.000      0.000 0.000          1           1 
    mgc_in_wire(2,8)                            0.000                       0.000      0.000 0.000          1           1 
    mgc_in_wire(3,8)                            0.000                       0.000      0.000 0.000          1           1 
    mgc_in_wire(4,8)                            0.000                       0.000      0.000 0.000          1           1 
    mgc_in_wire(5,8)                            0.000                       0.000      0.000 0.000          1           1 
    mgc_out_stdreg(6,64)                        0.000                       0.000      0.000 0.000          1           1 
                                                                                                                          
    TOTAL AREA (After Assignment):           2083.875                      10.000    434.000                              
    
  Area Scores
                      Post-Scheduling   Post-DP & FSM Post-Assignment 
    ----------------- --------------- --------------- ---------------
    Total Area Score:   1778.7          2201.1          2084.9        
    Total Reg:             0.0             0.0             0.0        
                                                                      
    DataPath:           1778.7 (100%)   2200.1 (100%)   2083.9 (100%) 
      MUX:                 0.0           359.2  (16%)    248.6  (12%) 
      FUNC:             1778.7 (100%)   1783.1  (81%)   1777.8  (85%) 
      LOGIC:               0.0            57.8   (3%)     57.5   (3%) 
      BUFFER:              0.0             0.0             0.0        
      MEM:                 0.0             0.0             0.0        
      ROM:                 0.0             0.0             0.0        
      REG:                 0.0             0.0             0.0        
                                                                      
    
    FSM:                   0.0             1.0   (0%)      1.0   (0%) 
      FSM-REG:             0.0             0.0             0.0        
      FSM-COMB:            0.0             1.0 (100%)      1.0 (100%) 
                                                                      
    
  Register-to-Variable Mappings
    Register                        Size(bits) Gated Register CG Opt Done Variables                                             
    ------------------------------- ---------- -------------- ----------- -----------------------------------------------------
    CA1.return:rsc:mgc_out_stdreg.d         64                            CA1.return:rsc:mgc_out_stdreg.d                       
    mul:mgc_mul.b                           64                            mul:mgc_mul.b                                         
    mul:mgc_mul.z.oreg                      64                            mul:mgc_mul.z.oreg                                    
    out.reg                                 64                            out.lpi#2                                             
                                                                          out.sva#1                                             
    mul:mgc_mul.a                           16                            mul:mgc_mul.a                                         
    INNER:slc#1.itm                          9                            INNER:slc#1.itm                                       
    a#1.sva                                  8                            a#1.sva                                               
    b#1.sva                                  8                            b#1.sva                                               
    c#1.sva                                  8                            c#1.sva                                               
    d#1.sva                                  8                            d#1.sva                                               
    e#1.sva                                  8                            e#1.sva                                               
    INNER:j#1.reg                            4                            INNER:j#1.sva                                         
                                                                          INNER:j#1.sva#1                                       
    OUTER:i#1.reg                            3                            OUTER:i#1.sva                                         
                                                                          OUTER:i#1.sva#1                                       
    INNER:slc.itm                            1                            INNER:slc.itm                                         
    OUTER:slc.itm                            1                            OUTER:slc.itm                                         
                                                                                                                                
    Total:                                 330              0           0 (Total Gating Ratio: 0.00, CG Opt Gating Ratio: 0.00) 
    
  Timing Report
    Critical Path
      Max Delay:  8.245005
      Slack:      1.7549949999999992
      
      Path                                                          Startpoint                    Endpoint                      Delay  Slack  
      ------------------------------------------------------------- ----------------------------- ----------------------------- ------ ------
      1                                                             CA1:core/reg(mul:mgc_mul.a)   CA1/reg(mul:mgc_mul.z.oreg)   8.2450 1.7550 
                                                                                                                                              
        Instance                                                    Component                                                   Delta  Delay  
        --------                                                    ---------                                                   -----  -----  
        CA1/mul:mgc_mul.a                                                                                                       0.0000 0.0000 
        CA1/mul:mgc_mul                                             mgc_mul_16_0_64_0_64                                        8.2450 8.2450 
        CA1/mul:mgc_mul.z                                                                                                       0.0000 8.2450 
        CA1/reg(mul:mgc_mul.z.oreg)                                 mgc_reg_pos_64_0_0_1_1_0_0                                  0.0000 8.2450 
                                                                                                                                              
      2                                                             CA1:core/reg(mul:mgc_mul.b)   CA1/reg(mul:mgc_mul.z.oreg)   8.2450 1.7550 
                                                                                                                                              
        Instance                                                    Component                                                   Delta  Delay  
        --------                                                    ---------                                                   -----  -----  
        CA1/mul:mgc_mul.b                                                                                                       0.0000 0.0000 
        CA1/mul:mgc_mul                                             mgc_mul_16_0_64_0_64                                        8.2450 8.2450 
        CA1/mul:mgc_mul.z                                                                                                       0.0000 8.2450 
        CA1/reg(mul:mgc_mul.z.oreg)                                 mgc_reg_pos_64_0_0_1_1_0_0                                  0.0000 8.2450 
                                                                                                                                              
      3                                                             CA1:core/reg(out.reg)         CA1:core/and#2.itm            7.2757 2.7243 
                                                                                                                                              
        Instance                                                    Component                                                   Delta  Delay  
        --------                                                    ---------                                                   -----  -----  
        CA1:core/reg(out.reg)                                       mgc_reg_pos_64_0_0_1_1_0_0                                  0.0000 0.0000 
        CA1:core/out.reg                                                                                                        0.0000 0.0000 
        CA1:core/INNER:acc#4                                        mgc_add_64_0_9_0_64                                         5.4647 5.4647 
        CA1:core/INNER:acc#4.itm                                                                                                0.0000 5.4647 
        CA1:core/mux1h#1                                            mgc_mux1hot_64_3                                            1.4021 6.8668 
        CA1:core/mux1h#1.itm                                                                                                    0.0000 6.8668 
        CA1:core/and#2                                              mgc_and_64_2                                                0.4089 7.2757 
        CA1:core/and#2.itm                                                                                                      0.0000 7.2757 
                                                                                                                                              
      4                                                             CA1:core/reg(INNER:slc#1.itm) CA1:core/and#2.itm            7.2757 2.7243 
                                                                                                                                              
        Instance                                                    Component                                                   Delta  Delay  
        --------                                                    ---------                                                   -----  -----  
        CA1:core/reg(INNER:slc#1.itm)                               mgc_reg_pos_9_0_0_1_1_0_0                                   0.0000 0.0000 
        CA1:core/INNER:slc#1.itm                                                                                                0.0000 0.0000 
        CA1:core/INNER:acc#4                                        mgc_add_64_0_9_0_64                                         5.4647 5.4647 
        CA1:core/INNER:acc#4.itm                                                                                                0.0000 5.4647 
        CA1:core/mux1h#1                                            mgc_mux1hot_64_3                                            1.4021 6.8668 
        CA1:core/mux1h#1.itm                                                                                                    0.0000 6.8668 
        CA1:core/and#2                                              mgc_and_64_2                                                0.4089 7.2757 
        CA1:core/and#2.itm                                                                                                      0.0000 7.2757 
                                                                                                                                              
      5                                                             CA1:core/reg(INNER:j#1.reg)   CA1:core/reg(OUTER:slc.itm)   4.1849 5.8151 
                                                                                                                                              
        Instance                                                    Component                                                   Delta  Delay  
        --------                                                    ---------                                                   -----  -----  
        CA1:core/reg(INNER:j#1.reg)                                 mgc_reg_pos_4_0_0_1_1_0_0                                   0.0000 0.0000 
        CA1:core/INNER:j#1.reg                                                                                                  0.0000 0.0000 
        CA1:core/INNER:acc#5                                        mgc_add_4_0_2_1_4                                           1.1614 1.1614 
        CA1:core/INNER:j#1.sva#1                                                                                                0.0000 1.1614 
        CA1:core/slc(INNER:j#1.sva#2)                                                                                           0.0000 1.1614 
        CA1:core/slc(INNER:j#1.sva#2).itm                                                                                       0.0000 1.1614 
        CA1:core/mux#8                                              mgc_mux_3_1_2                                               0.9468 2.1081 
        CA1:core/mux#8.itm                                                                                                      0.0000 2.1081 
        CA1:core/mgc_Altera-Cyclone-II-6_beh_psr.mgc_add(4,0,3,0,4) mgc_add_4_0_3_0_4                                           1.1300 3.2381 
        CA1:core/z.out                                                                                                          0.0000 3.2381 
        CA1:core/slc(OUTER:acc.itm.pdr)                                                                                         0.0000 3.2381 
        CA1:core/slc(OUTER:acc.itm.pdr).itm                                                                                     0.0000 3.2381 
        CA1:core/mux#6                                              mgc_mux_1_1_2                                               0.9467 4.1849 
        CA1:core/mux#6.itm                                                                                                      0.0000 4.1849 
        CA1:core/reg(OUTER:slc.itm)                                 mgc_reg_pos_1_0_0_1_1_0_0                                   0.0000 4.1849 
                                                                                                                                              
      6                                                             CA1:core/reg(OUTER:i#1.reg)   CA1:core/reg(OUTER:slc.itm)   4.0941 5.9059 
                                                                                                                                              
        Instance                                                    Component                                                   Delta  Delay  
        --------                                                    ---------                                                   -----  -----  
        CA1:core/reg(OUTER:i#1.reg)                                 mgc_reg_pos_3_0_0_1_1_0_0                                   0.0000 0.0000 
        CA1:core/OUTER:i#1.reg                                                                                                  0.0000 0.0000 
        CA1:core/OUTER:acc#1                                        mgc_add_3_0_2_1_3                                           1.0706 1.0706 
        CA1:core/OUTER:i#1.sva#1                                                                                                0.0000 1.0706 
        CA1:core/mux#9                                              mgc_mux_3_1_2                                               0.9467 2.0174 
        CA1:core/mux#9.itm                                                                                                      0.0000 2.0174 
        CA1:core/conc                                                                                                           0.0000 2.0174 
        CA1:core/conc.itm                                                                                                       0.0000 2.0174 
        CA1:core/mgc_Altera-Cyclone-II-6_beh_psr.mgc_add(4,0,3,0,4) mgc_add_4_0_3_0_4                                           1.1300 3.1473 
        CA1:core/z.out                                                                                                          0.0000 3.1473 
        CA1:core/slc(OUTER:acc.itm.pdr)                                                                                         0.0000 3.1473 
        CA1:core/slc(OUTER:acc.itm.pdr).itm                                                                                     0.0000 3.1473 
        CA1:core/mux#6                                              mgc_mux_1_1_2                                               0.9467 4.0941 
        CA1:core/mux#6.itm                                                                                                      0.0000 4.0941 
        CA1:core/reg(OUTER:slc.itm)                                 mgc_reg_pos_1_0_0_1_1_0_0                                   0.0000 4.0941 
                                                                                                                                              
      7                                                             CA1:core/reg(INNER:j#1.reg)   CA1:core/reg(INNER:slc.itm)   3.2381 6.7619 
                                                                                                                                              
        Instance                                                    Component                                                   Delta  Delay  
        --------                                                    ---------                                                   -----  -----  
        CA1:core/reg(INNER:j#1.reg)                                 mgc_reg_pos_4_0_0_1_1_0_0                                   0.0000 0.0000 
        CA1:core/INNER:j#1.reg                                                                                                  0.0000 0.0000 
        CA1:core/INNER:acc#5                                        mgc_add_4_0_2_1_4                                           1.1614 1.1614 
        CA1:core/INNER:j#1.sva#1                                                                                                0.0000 1.1614 
        CA1:core/slc(INNER:j#1.sva#2)                                                                                           0.0000 1.1614 
        CA1:core/slc(INNER:j#1.sva#2).itm                                                                                       0.0000 1.1614 
        CA1:core/mux#8                                              mgc_mux_3_1_2                                               0.9468 2.1081 
        CA1:core/mux#8.itm                                                                                                      0.0000 2.1081 
        CA1:core/mgc_Altera-Cyclone-II-6_beh_psr.mgc_add(4,0,3,0,4) mgc_add_4_0_3_0_4                                           1.1300 3.2381 
        CA1:core/z.out                                                                                                          0.0000 3.2381 
        CA1:core/INNER:slc                                                                                                      0.0000 3.2381 
        CA1:core/INNER:slc.itm#1                                                                                                0.0000 3.2381 
        CA1:core/reg(INNER:slc.itm)                                 mgc_reg_pos_1_0_0_1_1_0_0                                   0.0000 3.2381 
                                                                                                                                              
      8                                                             CA1:core/reg(OUTER:i#1.reg)   CA1:core/reg(INNER:slc.itm)   3.1473 6.8527 
                                                                                                                                              
        Instance                                                    Component                                                   Delta  Delay  
        --------                                                    ---------                                                   -----  -----  
        CA1:core/reg(OUTER:i#1.reg)                                 mgc_reg_pos_3_0_0_1_1_0_0                                   0.0000 0.0000 
        CA1:core/OUTER:i#1.reg                                                                                                  0.0000 0.0000 
        CA1:core/OUTER:acc#1                                        mgc_add_3_0_2_1_3                                           1.0706 1.0706 
        CA1:core/OUTER:i#1.sva#1                                                                                                0.0000 1.0706 
        CA1:core/mux#9                                              mgc_mux_3_1_2                                               0.9467 2.0174 
        CA1:core/mux#9.itm                                                                                                      0.0000 2.0174 
        CA1:core/conc                                                                                                           0.0000 2.0174 
        CA1:core/conc.itm                                                                                                       0.0000 2.0174 
        CA1:core/mgc_Altera-Cyclone-II-6_beh_psr.mgc_add(4,0,3,0,4) mgc_add_4_0_3_0_4                                           1.1300 3.1473 
        CA1:core/z.out                                                                                                          0.0000 3.1473 
        CA1:core/INNER:slc                                                                                                      0.0000 3.1473 
        CA1:core/INNER:slc.itm#1                                                                                                0.0000 3.1473 
        CA1:core/reg(INNER:slc.itm)                                 mgc_reg_pos_1_0_0_1_1_0_0                                   0.0000 3.1473 
                                                                                                                                              
      9                                                             CA1:core/reg(a#1.sva)         CA1:core/reg(INNER:slc#1.itm) 2.9309 7.0691 
                                                                                                                                              
        Instance                                                    Component                                                   Delta  Delay  
        --------                                                    ---------                                                   -----  -----  
        CA1:core/reg(a#1.sva)                                       mgc_reg_pos_8_0_0_1_1_0_0                                   0.0000 0.0000 
        CA1:core/a#1.sva                                                                                                        0.0000 0.0000 
        CA1:core/INNER:acc#10                                       mgc_add_8_0_7_0_9                                           1.3964 1.3964 
        CA1:core/INNER:acc#10.itm                                                                                               0.0000 1.3964 
        CA1:core/INNER:conc                                                                                                     0.0000 1.3964 
        CA1:core/INNER:conc.itm                                                                                                 0.0000 1.3964 
        CA1:core/INNER:acc#7                                        mgc_add_10_0_9_0_11                                         1.5345 2.9309 
        CA1:core/INNER:acc#7.itm                                                                                                0.0000 2.9309 
        CA1:core/INNER:slc#1                                                                                                    0.0000 2.9309 
        CA1:core/INNER:slc#1.itm#2                                                                                              0.0000 2.9309 
        CA1:core/reg(INNER:slc#1.itm)                               mgc_reg_pos_9_0_0_1_1_0_0                                   0.0000 2.9309 
                                                                                                                                              
      10                                                            CA1:core/reg(b#1.sva)         CA1:core/reg(INNER:slc#1.itm) 2.9309 7.0691 
                                                                                                                                              
        Instance                                                    Component                                                   Delta  Delay  
        --------                                                    ---------                                                   -----  -----  
        CA1:core/reg(b#1.sva)                                       mgc_reg_pos_8_0_0_1_1_0_0                                   0.0000 0.0000 
        CA1:core/b#1.sva                                                                                                        0.0000 0.0000 
        CA1:core/slc(b#1.sva)                                                                                                   0.0000 0.0000 
        CA1:core/slc(b#1.sva).itm                                                                                               0.0000 0.0000 
        CA1:core/INNER:acc#10                                       mgc_add_8_0_7_0_9                                           1.3964 1.3964 
        CA1:core/INNER:acc#10.itm                                                                                               0.0000 1.3964 
        CA1:core/INNER:conc                                                                                                     0.0000 1.3964 
        CA1:core/INNER:conc.itm                                                                                                 0.0000 1.3964 
        CA1:core/INNER:acc#7                                        mgc_add_10_0_9_0_11                                         1.5345 2.9309 
        CA1:core/INNER:acc#7.itm                                                                                                0.0000 2.9309 
        CA1:core/INNER:slc#1                                                                                                    0.0000 2.9309 
        CA1:core/INNER:slc#1.itm#2                                                                                              0.0000 2.9309 
        CA1:core/reg(INNER:slc#1.itm)                               mgc_reg_pos_9_0_0_1_1_0_0                                   0.0000 2.9309 
                                                                                                                                              
      
    Register Input and Register-to-Output Slack
      Clock period or pin-to-reg delay constraint (clk): 10.0
      Clock uncertainty constraint (clk)               : 0.0
      
      Instance                                      Port                Slack (Delay) Messages 
      --------------------------------------------- ----------------- ------- ------- --------
      CA1/reg(mul:mgc_mul.z.oreg)                   mul:mgc_mul.z      1.7550  8.2450          
      CA1:core/reg(CA1.return:rsc:mgc_out_stdreg.d) mux.itm            8.6553  1.3447          
      CA1:core/reg(OUTER:i#1.reg)                   and.itm            7.5738  2.4262          
      CA1:core/reg(e#1.sva)                         mux#1.itm          7.8595  2.1405          
      CA1:core/reg(out.reg)                         and#2.itm          2.7243  7.2757          
      CA1:core/reg(INNER:j#1.reg)                   and#3.itm          7.4830  2.5170          
      CA1:core/reg(a#1.sva)                         mux#2.itm          7.8595  2.1405          
      CA1:core/reg(b#1.sva)                         mux#3.itm          7.8595  2.1405          
      CA1:core/reg(c#1.sva)                         mux#4.itm          7.8595  2.1405          
      CA1:core/reg(d#1.sva)                         mux#5.itm          7.8595  2.1405          
      CA1:core/reg(mul:mgc_mul.b)                   out.reg            2.7243  7.2757          
      CA1:core/reg(mul:mgc_mul.a)                   OUTER:mul#1.itm    7.2078  2.7922          
      CA1:core/reg(INNER:slc.itm)                   INNER:slc.itm#1    6.7619  3.2381          
      CA1:core/reg(INNER:slc#1.itm)                 INNER:slc#1.itm#2  7.0691  2.9309          
      CA1:core/reg(OUTER:slc.itm)                   mux#6.itm          5.8151  4.1849          
      CA1                                           CA1.return:rsc.z  10.0000  0.0000          
      
  Operator Bitwidth Summary
    Operation  Size (bits) Count 
    ---------- ----------- -----
    add                          
    -                   64     1 
    -                   11     1 
    -                    9     2 
    -                    4     2 
    -                    3     1 
    and                          
    -                    2     3 
    mul                          
    -                   64     1 
    -                   16     1 
    mux                          
    -                    1    11 
    mux1h                        
    -                    3     1 
    nor                          
    -                    3     1 
    -                    2     1 
    not                          
    -                    1     6 
    or                           
    -                    4     1 
    -                    3     1 
    -                    2     2 
    read_port                    
    -                    8     5 
    reg                          
    -                   64     4 
    -                   16     1 
    -                    9     1 
    -                    8     5 
    -                    4     1 
    -                    3     1 
    -                    1     2 
    write_port                   
    -                   64     1 
    
  End of Report
