-- Catapult System Level Synthesis: Report                                              
-- -------------------------------- ---------------------------------------------------
-- Version:                         2011a.41 Production Release                         
-- Build Date:                      Thu Apr  7 20:28:55 PDT 2011                        
                                                                                        
-- Generated by:                    jso@DESKTOP-B1OLF1K                                 
-- Generated date:                  Wed Mar 21 19:55:41 +0330 2018                      

Solution Settings: CA1.v14
  Current state: schedule
  Project: CA1
  
  Design Input Files Specified
    $PROJECT_HOME/code.cpp
      $MGC_HOME/shared/include/ac_int.h
  
  Processes/Blocks in Design
    Process       Real Operation(s) count Latency Throughput Reset Length II Comments 
    ------------- ----------------------- ------- ---------- ------------ -- --------
    /CA1/core                          18      71         72            0  0          
    Design Total:                      18      71         72            0  0          
    
  Clock Information
    Clock Signal Edge   Period Sharing Alloc (%) Uncertainty Used by Processes/Blocks 
    ------------ ------ ------ ----------------- ----------- ------------------------
    clk          rising 10.000             20.00    0.000000 /CA1/core                
    
  I/O Data Ranges
    Port             Mode DeclType DeclWidth DeclRange ActType ActWidth ActRange 
    ---------------- ---- -------- --------- --------- ------- -------- --------
    a:rsc.z          IN   Unsigned         8                                     
    b:rsc.z          IN   Unsigned         8                                     
    c:rsc.z          IN   Unsigned         8                                     
    d:rsc.z          IN   Unsigned         8                                     
    e:rsc.z          IN   Unsigned         8                                     
    clk              IN   Unsigned         1                                     
    rst              IN   Unsigned         1                                     
    CA1.return:rsc.z OUT  Unsigned        64                                     
    
  Memory Resources
    Resource Name: /CA1/a:rsc
      Memory Component: mgc_in_wire                  Size:         1 x 8
      External:         true                         Packing Mode: sidebyside
      Memory Map:
      Variable Indices Phys Memory Address     
      -------- ------- -----------------------
      /CA1/a       0:7 00000000-00000000 (0-0) 
      
    Resource Name: /CA1/b:rsc
      Memory Component: mgc_in_wire                  Size:         1 x 8
      External:         true                         Packing Mode: sidebyside
      Memory Map:
      Variable Indices Phys Memory Address     
      -------- ------- -----------------------
      /CA1/b       0:7 00000000-00000000 (0-0) 
      
    Resource Name: /CA1/c:rsc
      Memory Component: mgc_in_wire                  Size:         1 x 8
      External:         true                         Packing Mode: sidebyside
      Memory Map:
      Variable Indices Phys Memory Address     
      -------- ------- -----------------------
      /CA1/c       0:7 00000000-00000000 (0-0) 
      
    Resource Name: /CA1/d:rsc
      Memory Component: mgc_in_wire                  Size:         1 x 8
      External:         true                         Packing Mode: sidebyside
      Memory Map:
      Variable Indices Phys Memory Address     
      -------- ------- -----------------------
      /CA1/d       0:7 00000000-00000000 (0-0) 
      
    Resource Name: /CA1/e:rsc
      Memory Component: mgc_in_wire                  Size:         1 x 8
      External:         true                         Packing Mode: sidebyside
      Memory Map:
      Variable Indices Phys Memory Address     
      -------- ------- -----------------------
      /CA1/e       0:7 00000000-00000000 (0-0) 
      
    Resource Name: /CA1/CA1.return:rsc
      Memory Component: mgc_out_stdreg               Size:         1 x 64
      External:         true                         Packing Mode: sidebyside
      Memory Map:
      Variable        Indices Phys Memory Address     
      --------------- ------- -----------------------
      /CA1/CA1.return    0:63 00000000-00000000 (0-0) 
      
  Multi-Cycle (Combinational) Component Usage
    Instance Component Name Delay 
    -------- -------------- -----
    
  Loops
    Process   Loop             Iterations C-Steps Total Cycles   Duration  Unroll Init Comments 
    --------- ---------------- ---------- ------- ------------- ---------- ------ ---- --------
    /CA1/core main               Infinite       2           72  720.00 ns                       
    /CA1/core   OUTER                   5       3           70  700.00 ns                       
    /CA1/core    INNER                 10       2           11  110.00 ns            1          
    
  Loop Execution Profile
    Process   Loop             Total Cycles % of Overall Design Cycles Throughput Cycles Comments 
    --------- ---------------- ------------ -------------------------- ----------------- --------
    /CA1/core main                       2                        2.78               72           
    /CA1/core   OUTER                   15                       20.83               70           
    /CA1/core    INNER                  55                       76.39                1           
    
  End of Report
